<?xml version="1.0" encoding="UTF-8"?>
<glyph name="longs" format="1">
  <advance width="278"/>
  <unicode hex="017F"/>
  <outline>
    <contour>
      <point x="113" y="0" type="line" name="hr00"/>
      <point x="193" y="0" type="line"/>
      <point x="193" y="670" type="line"/>
      <point x="304" y="670" type="line"/>
      <point x="304" y="740" type="line"/>
      <point x="226" y="740" type="line" smooth="yes"/>
      <point x="150" y="740"/>
      <point x="113" y="691"/>
      <point x="113" y="620" type="curve" smooth="yes"/>
      <point x="113" y="516" type="line"/>
      <point x="29" y="516" type="line"/>
      <point x="29" y="446" type="line"/>
      <point x="113" y="446" type="line"/>
    </contour>
  </outline>
</glyph>
