<?xml version="1.0" encoding="UTF-8"?>
<glyph name="seenabove-ar" format="1">
  <advance width="0"/>
  <unicode hex="06DC"/>
  <outline>
    <component base="comp.seenSmall-ar"/>
    <contour>
      <point x="220" y="249" type="move" name="_top"/>
    </contour>
    <contour>
      <point x="220" y="498" type="move" name="top"/>
    </contour>
  </outline>
  <lib>
    <dict>
      <key>com.typemytype.robofont.mark</key>
      <array>
        <real>0.6</real>
        <real>0.986</real>
        <real>1.0</real>
        <real>1.0</real>
      </array>
    </dict>
  </lib>
</glyph>
