<?xml version="1.0" encoding="UTF-8"?>
<glyph name="yeh_zain-ar.fina.rlig.short" format="1">
  <advance width="595"/>
  <outline>
    <component base="alefMaksura_reh-ar.fina.rlig.short"/>
    <component base="dotabove-ar" xOffset="100" yOffset="40"/>
    <component base="twodotshorizontalbelow-ar" xOffset="310" yOffset="-570"/>
    <contour>
      <point x="439" y="-198" type="move" name="bottom_1"/>
    </contour>
    <contour>
      <point x="52" y="-240" type="move" name="bottom_2"/>
    </contour>
    <contour>
      <point x="104" y="-227" type="move" name="ring"/>
    </contour>
    <contour>
      <point x="439" y="329" type="move" name="top_1"/>
    </contour>
    <contour>
      <point x="165" y="507" type="move" name="top_2"/>
    </contour>
  </outline>
  <lib>
    <dict>
      <key>com.typemytype.robofont.mark</key>
      <array>
        <real>0.6</real>
        <real>0.986</real>
        <real>1.0</real>
        <real>1.0</real>
      </array>
    </dict>
  </lib>
</glyph>
