<?xml version="1.0" encoding="UTF-8"?>
<glyph name="atilde.alt01" format="1">
  <advance width="608"/>
  <outline>
    <component base="a.alt01"/>
    <component base="tilde" xOffset="15"/>
    <contour>
      <point x="291" y="0" type="move" name="bottom"/>
    </contour>
    <contour>
      <point x="539" y="0" type="move" name="bottomright"/>
    </contour>
  </outline>
  <lib>
    <dict>
      <key>com.typemytype.robofont.mark</key>
      <array>
        <real>0.6</real>
        <real>0.986</real>
        <real>1.0</real>
        <real>1.0</real>
      </array>
    </dict>
  </lib>
</glyph>
