<?xml version="1.0" encoding="UTF-8"?>
<glyph name="dal-ar.isol" format="1">
  <advance width="464"/>
  <unicode hex="FEA9"/>
  <outline>
    <component base="dal-ar"/>
  </outline>
  <lib>
    <dict>
      <key>com.typemytype.robofont.mark</key>
      <array>
        <real>0.6</real>
        <real>0.986</real>
        <real>1.0</real>
        <real>1.0</real>
      </array>
    </dict>
  </lib>
</glyph>
