<?xml version="1.0" encoding="UTF-8"?>
<glyph name="shaddaFathatan-ar" format="1">
  <advance width="0"/>
  <outline>
    <component base="shadda-ar"/>
    <component base="comp.fatha-ar" xOffset="30" yOffset="173"/>
    <component base="comp.fatha-ar" xOffset="30" yOffset="291"/>
  </outline>
  <lib>
    <dict>
      <key>com.typemytype.robofont.mark</key>
      <array>
        <real>0.6</real>
        <real>0.986</real>
        <real>1.0</real>
        <real>1.0</real>
      </array>
    </dict>
  </lib>
</glyph>
